{
  "WsFindGroupsResults": {
    "groupResults": [
      {
        "extension": "group1",
        "displayName": "Example University:Office of Information Technology:Systems:ACME:group1",
        "description": "group1",
        "uuid": "6d066b25bd764a76b1cb8600bead8a88",
        "enabled": "T",
        "displayExtension": "group1",
        "name": "example:oit:systems:acme:group1",
        "typeOfGroup": "group"
      },
      {
        "extension": "group2",
        "displayName": "Example University:Office of Information Technology:Systems:ACME:group2",
        "description": "group2",
        "uuid": "6d066b25bd764a76b1cb8600bead8a88",
        "enabled": "T",
        "displayExtension": "group2",
        "name": "example:oit:systems:acme:group2",
        "typeOfGroup": "group"
      }
    ],
    "resultMetadata": {
      "success": "T",
      "resultCode": "SUCCESS",
      "resultMessage": "Success for: clientVersion: 2.1.500, wsQueryFilter: WsQueryFilter[queryFilterType=FIND_BY_GROUP_NAME_APPROXIMATE,groupName=%,stemName=example:oit:systems:acme]\n, includeGroupDetail: false, actAsSubject: null, paramNames: \n, params: null\n, wsGroupLookups: null"
    },
    "responseMetadata": {
      "serverVersion": "4.6.0",
      "millis": "315"
    }
  }
}
