{
  "WsGetGrouperPrivilegesLiteResult": {
    "resultMetadata": {
      "success": "F",
      "resultCode": "GROUP_NOT_FOUND",
      "resultMessage": "Invalid group for 'wsGroupLookup', WsGroupLookup[pitGroups=[],groupName=duke:oit:test:drews:drew-testxxx,\n  groupFindResult=GROUP_NOT_FOUND], clientVersion: 2.1.500, wsSubject: WsSubjectLookup[], group: WsGroupLookup[pitGroups=[],groupName=duke:oit:test:drews:drew-testxxx], stem: WsStemLookup[], privilege: null-null, actAsSubject: null\n, params:null"
    },
    "responseMetadata": {
      "serverVersion": "4.6.0",
      "millis": "19"
    }
  }
}
